R Training | Day 2
…
Pull-out a few columns to create a new table

Rearrange or change the order of columns

Drop columns with a minus sign: -column_name

library(dplyr)
library(readr)

scrap <- read_csv("https://itep-r.netlify.com/data/starwars_scrap_jakku.csv")

# Drop the destination column
select(scrap, -destination)

## # A tibble: 1,132 x 6
##    receipt_date item                  origin   amount units price_per_pound
##    <chr>        <chr>                 <chr>     <dbl> <chr>           <dbl>
##  1 4/1/2013     Flight recorder       Outskir~    887 Tons             591.
##  2 4/2/2013     Proximity sensor      Outskir~   7081 Tons            1229.
##  3 4/3/2013     Vitus-Series Attitud~ Reestki    4901 Tons             226.
##  4 4/4/2013     Aural sensor          Tuanul      707 Tons             145.
##  5 4/5/2013     Electromagnetic disc~ Tuanul      107 Tons             188.
##  6 4/6/2013     Proximity sensor      Tuanul    32109 Tons            1229.
##  7 4/7/2013     Hyperdrive motivator  Tuanul      862 Tons            1485.
##  8 4/8/2013     Landing jet           Reestki   13944 Tons            1497.
##  9 4/9/2013     Electromagnetic disc~ Cratert~   7788 Tons             188.
## 10 4/10/2013    Sublight engine       Outskir~  10642 Tons            7211.
## # ... with 1,122 more rows

Keep only three columns

# Keep the item, amount and price_per_pound columns
select(scrap, c(item, amount, price_per_pound))

## # A tibble: 1,132 x 3
##    item                             amount price_per_pound
##    <chr>                             <dbl>           <dbl>
##  1 Flight recorder                     887            591.
##  2 Proximity sensor                   7081           1229.
##  3 Vitus-Series Attitude Thrusters    4901            226.
##  4 Aural sensor                        707            145.
##  5 Electromagnetic discharge filter    107            188.
##  6 Proximity sensor                  32109           1229.
##  7 Hyperdrive motivator                862           1485.
##  8 Landing jet                       13944           1497.
##  9 Electromagnetic discharge filter   7788            188.
## 10 Sublight engine                   10642           7211.
## # ... with 1,122 more rows
…
## Observations: 1,190
## Variables: 8
## $ analyte        <chr> "1-Methylnaphthalene", "1-Methylnaphthalene", "...
## $ lab_code       <chr> "HV-403", "HV-408", "HV-411", "HV-415", "HV-418...
## $ units          <chr> "ng/m3", "ng/m3", "ng/m3", "ng/m3", "ng/m3", "n...
## $ start_run_date <chr> "7/11/2016", "7/23/2016", "8/5/2016", "8/16/201...
## $ site_name      <chr> "battlesite1", "battlesite1", "battlesite1", "b...
## $ long_site_name <chr> "Endor_Tana_forestmoon_battlesite1", "Endor_Tan...
## $ planet         <chr> "Endor", "Endor", "Endor", "Endor", "Endor", "E...
## $ result         <dbl> 0.00291, 0.00000, 0.00000, 0.00608, 0.00000, 0....

distinct(air_endor, analyte)

## # A tibble: 27 x 1
##    analyte             
##    <chr>               
##  1 1-Methylnaphthalene 
##  2 2-Methylnaphthalene 
##  3 5-Methylchrysene    
##  4 Acenaphthene        
##  5 Anthanthrene        
##  6 Benz[a]anthracene   
##  7 Benzo[a]pyrene      
##  8 Benzo[c]fluorene    
##  9 Benzo[e]pyrene      
## 10 Benzo[g,h,i]perylene
## # ... with 17 more rows
…
